{
  "kind": "collectionType",
  "collectionName": "navigation_items",
  "info": {
    "singularName": "navigation-item",
    "pluralName": "navigation-items",
    "displayName": "Navigation Item",
    "description": ""
  },
  "options": {
    "draftAndPublish": true
  },
  "pluginOptions": {},
  "attributes": {
    "title": {
      "type": "string"
    },
    "type": {
      "type": "string"
    },
    "icon": {
      "type": "string"
    },
    "link": {
      "type": "string"
    },
    "badge": {
      "type": "json"
    },
    "parent": {
      "type": "relation",
      "relation": "manyToOne",
      "target": "api::backoffice-navigation.backoffice-navigation",
      "inversedBy": "children"
    },
    "idx": {
      "type": "string"
    }
  }
}
